Return-Path: <20200702160302e158803b894243b8a6e653377fe0p0eu@bounces.amazon.de>
Delivered-To: thomas.lamy@netwake.de
Received: from localhost (localhost [127.0.0.1])
	by mail.netwake.de (Postfix) with ESMTP id 12E9F26C8DC
	for <thomas.lamy@netwake.de>; Thu,  2 Jul 2020 18:03:07 +0200 (CEST)
Authentication-Results: mail.netwake.de;
	dkim=pass (1024-bit key; unprotected) header.d=amazon.de header.i=@amazon.de header.b="KMbZ+Ldk";
	dkim=pass (1024-bit key; unprotected) header.d=amazonses.com header.i=@amazonses.com header.b="QsHl3k/s";
	dkim-atps=neutral
X-Spam-Flag: NO
X-Spam-Score: -0.186
X-Spam-Level:
X-Spam-Status: No, score=-0.186 tagged_above=-998 required=6.31
	tests=[DKIMWL_WL_HIGH=0.001, DKIM_SIGNED=0.1, DKIM_VALID=-0.1,
	DKIM_VALID_AU=-0.1, DKIM_VALID_EF=-0.1, HTML_MESSAGE=0.001,
	RCVD_IN_MSPIKE_H3=0.001, RCVD_IN_MSPIKE_WL=0.001, SPF_PASS=-0.001,
	T_REMOTE_IMAGE=0.01, URIBL_BLOCKED=0.001]
	autolearn=ham autolearn_force=no
Authentication-Results: srv.netwake.de (amavisd-new); dkim=pass (1024-bit key)
	header.d=amazon.de header.b=KMbZ+Ldk; dkim=pass (1024-bit key)
	header.d=amazonses.com header.b=QsHl3k/s
Received: from mail.netwake.de ([127.0.0.1])
	by localhost (srv.netwake.de [127.0.0.1]) (amavisd-new, port 10024)
	with ESMTP id PiIMvJykbYgJ for <thomas.lamy@netwake.de>;
	Thu,  2 Jul 2020 18:03:05 +0200 (CEST)
Received: from a1-20.smtp-out.eu-west-1.amazonses.com (a1-20.smtp-out.eu-west-1.amazonses.com [54.240.1.20])
	by mail.netwake.de (Postfix) with ESMTPS id DD67326C8DB
	for <thomas.lamy@netwake.de>; Thu,  2 Jul 2020 18:03:04 +0200 (CEST)
DKIM-Signature: v=1; a=rsa-sha256; q=dns/txt; c=relaxed/simple;
	s=oh3t3hujtzjgoyk4jpthyrvrimucwqwq; d=amazon.de; t=1593705783;
	h=From:Reply-To:To:Message-ID:Subject:MIME-Version:Content-Type:Date;
	bh=Aw0wXobq7YSTPYLnmw3E8aD2qIY7TR4VMJ7U5HBraZg=;
	b=KMbZ+LdkwKqUUucVEeFiqU0LzHdZPkIQS+W6Z4q+VPMqoGOHXhqaCZz829N+nnJi
	R8I9kVT0ELR3hAgMN9IDDNPlLlUmnYXIju9Y1HAaAFKrvWznUYxToOMLCLmmy/qrrh4
	r/vl/j+2tg7L7z9HMtbMTr0nj75wBNw3fmG/RPhQ=
DKIM-Signature: v=1; a=rsa-sha256; q=dns/txt; c=relaxed/simple;
	s=shh3fegwg5fppqsuzphvschd53n6ihuv; d=amazonses.com; t=1593705783;
	h=From:Reply-To:To:Message-ID:Subject:MIME-Version:Content-Type:Date:Feedback-ID;
	bh=Aw0wXobq7YSTPYLnmw3E8aD2qIY7TR4VMJ7U5HBraZg=;
	b=QsHl3k/sCNnD8WG6C9pUzEfYfJ7uQ/XpuXdVHYd2Vo6TdLe8ocGC5ceRDiqU8iGz
	vqb8XZIyywGvTnMwhOvknW43PGN4fw6rDnvPVuyeUzZ7rJVX6KXpan7uRgHeyZ5DdPC
	f2b2rW0WVDWkyYXZl4dzY0YwkLwbVd60zuDJ0WEA=
From: "Amazon.de" <bestellbestaetigung@amazon.de>
Reply-To: bestellbestaetigung@amazon.de
To: thomas.lamy@netwake.de
Message-ID: <01020173104461fc-39ebd65b-13c4-459b-b04a-7b11ab6763e5-000000@eu-west-1.amazonses.com>
Subject: Ihre Amazon.de Bestellung # 305-7109682-4785149 von 2-Artikeln
MIME-Version: 1.0
Content-Type: multipart/alternative;
	boundary="----=_Part_8641258_1497831523.1593705783795"
X-AMAZON-MAIL-RELAY-TYPE: notification
Bounces-to: 20200702160302e158803b894243b8a6e653377fe0p0eu@bounces.amazon.de
X-AMAZON-METADATA: CA=C19Z1NQDTDH7SM-CU=A24K0TF6UPBAUJ
X-Original-MessageID: <urn.rtn.msg.20200702160302e158803b894243b8a6e653377fe0p0eu@1593705783796.rtn-svc-eu-back-c42xl1c-bf11ab6a.eu-west-1.amazon.com>
Date: Thu, 2 Jul 2020 16:03:03 +0000
X-SES-Outgoing: 2020.07.02-54.240.1.20
Feedback-ID: 1.eu-west-1.UIAUrMfbpGrxavqnRE0yoZrAUBI9C7GRNUx/kUDo6B4=:AmazonSES

------=_Part_8641258_1497831523.1593705783795
Content-Type: text/plain; charset=utf-8
Content-Transfer-Encoding: quoted-printable

Amazon.de Bestellbest=C3=A4tigung
Bestellung #305-7109682-4785149
https://www.amazon.de/ref=3DTE_tex_h
___________________________________________________________________________=
__________

Guten Tag,

vielen Dank f=C3=BCr Ihre Bestellung. Wir werden Sie benachrichtigen, sobal=
d Ihr(e) Artikel versandt wurde(n).=20
Sie finden das voraussichtliche Lieferdatum weiter unten.=20
Um Ihre Bestellung anzusehen oder zu =C3=A4ndern, besuchen Sie "Meine Beste=
llungen" auf unserer Website Amazon.de:=20
    https://www.amazon.de/gp/css/your-orders-access?ref_=3DTE_tex_gs


     Zustellung:=20
          Freitag, 3 Juli

     Versandart:=20
          Premiumversand

     Gew=C3=A4hlte Versandoption:=20
          Artikel versenden, sobald sie verf=C3=BCgbar sind.=20

     Die Bestellung geht an:=20
          Thomas
          Henstedt-Ulzburg
          Deutschland

=3D=3D=3D=3D=3D=3D=3D=3D=3D=3D=3D=3D=3D=3D=3D=3D=3D=3D=3D=3D=3D=3D=3D=3D=3D=
=3D=3D=3D=3D=3D=3D=3D=3D=3D=3D=3D=3D=3D=3D=3D=3D=3D=3D=3D=3D=3D=3D=3D=3D=3D=
=3D=3D=3D=3D=3D=3D=3D=3D=3D=3D=3D=3D=3D=3D=3D=3D=3D=3D=3D=3D=3D=3D=3D=3D=3D=
=3D=3D=3D=3D=3D=3D=3D=3D=3D=3D

Bestell=C3=BCbersicht




Bestellnummer #305-7109682-4785149
Aufgegeben am 2. Juli 2020
___________________________________________________________________________=
____________

     Zwischensumme: EUR 20,68
     Verpackung und Versand:     EUR 0,00


     Zwischensumme ohne USt.:      EUR 20,68
     Umsatzsteuer:      EUR 3,30

     Endbetrag inkl. USt.:      EUR 23,98


     Gew=C3=A4hlte Zahlungsart:  Bankeinzug
=3D=3D=3D=3D=3D=3D=3D=3D=3D=3D=3D=3D=3D=3D=3D=3D=3D=3D=3D=3D=3D=3D=3D=3D=3D=
=3D=3D=3D=3D=3D=3D=3D=3D=3D=3D=3D=3D=3D=3D=3D=3D=3D=3D=3D=3D=3D=3D=3D=3D=3D=
=3D=3D=3D=3D=3D=3D=3D=3D=3D=3D=3D=3D=3D=3D=3D=3D=3D=3D=3D=3D=3D=3D=3D=3D=3D=
=3D=3D=3D=3D=3D=3D=3D=3D=3D=3D=3D=3D
M=C3=B6chten Sie Ihre Bestellung =C3=A4ndern, besuchen Sie bitte die folgen=
de Hilfeseite, wo Sie Informationen und Hilfevideos dazu finden:=20
https://www.amazon.de/bestellung-aendern?ref_=3DTE_tex_ss

Wir freuen uns auf Ihren n=C3=A4chsten Besuch!

Amazon.de
www.amazon.de/ref=3DTE_tex_ty
___________________________________________________________________________=
__________

Artikel mit dem Hinweis "Versand durch Amazon" werden bei einem Drittanbiet=
er gekauft, aber von einem unserer Logistikzentren an Sie verschickt. Hierz=
u z=C3=A4hlen auch Artikel, die Sie =C3=BCber Amazon.de Warehouse Deals erw=
erben. Warehouse Deals ist ein Handelsname der Amazon EU S.a.r.l. Weitere I=
nformationen finden Sie auf unserer Amazon Logistics Hilfeseite:=20
https://www.amazon.de/help/en/fba?ref_=3DTE_helpfba

Wir weisen darauf hin, dass Verk=C3=A4ufer m=C3=B6glicherweise zus=C3=A4tzl=
iche Informationen, wie beispielsweise die USt-Identifikationsnummer anfrag=
en werden, um korrekte Rechnungen ausstellen zu k=C3=B6nnen.=20

Bitte beachten Sie: Diese E-Mail dient lediglich der Best=C3=A4tigung des E=
inganges Ihrer Bestellung und stellt noch keine Annahme Ihres Angebotes auf=
 Abschluss eines Kaufvertrages dar. Ihr Kaufvertrag f=C3=BCr einen Artikel =
kommt zu Stande, wenn wir Ihre Bestellung annehmen, indem wir Ihnen eine E-=
Mail mit der Benachrichtigung zusenden, dass der Artikel an Sie abgeschickt=
 wurde.=20
https://www.amazon.de/gp/help/customer/display.html?nodeId=3D201909000&ref_=
=3DTE_gtnc

Dies ist eine automatisch versendete Nachricht. Bitte antworten Sie nicht a=
uf dieses Schreiben, da die Adresse nur zur Versendung von E-Mails eingeric=
htet ist.=20
------=_Part_8641258_1497831523.1593705783795
Content-Type: text/html; charset=utf-8
Content-Transfer-Encoding: quoted-printable

<html xmlns=3D"http://www.w3.org/1999/xhtml">
 <head>=20
  <meta http-equiv=3D"Content-Type" content=3D"text/html; charset=3DUTF-8" =
/>=20
  <style type=3D"text/css">
body {
    background-color: #ffffff;
=09margin:0;
=09font:12px/16px Arial, sans-serif;
}

a {
=09text-decoration:none;
=09color:#006699;
=09font:12px/16px Arial, sans-serif;
}

a img {
=09border:0;
}

h2 {
=09font-size:20px;
=09line-height:24px;
=09margin:0;
=09padding:0;
=09font-weight:normal;
=09color:#000 !important;
}

h3 {
=09font-size: 18px;
=09color:#cc6600;
=09margin:15px 0 0 0;
=09font-weight: normal;
}

h4 {
=09font-size:14px;
=09margin:0;
=09font-weight:normal;
}

p {
=09margin:4px 0 0 0;
=09font:12px/16px Arial, sans-serif;
}

table {
=09border-collapse:collapse;
}

td {
=09vertical-align: top;
=09font-size: 12px;
=09line-height: 16px;
=09font-family: Arial, sans-serif;
}

/* container */
#container {
=09width:640px;
=09color:#333;
=09margin:0 auto;
}

#container .frame {
=09padding:0 20px 20px 20px;
}

/* content tables */
#main, #header, #summary, #desiredInformation, #orderDetails, #itemDetails,=
 #costBreakdown, #costBreakdownNoAsin,
#selfService, #closing, #marketingContent, #legalCopy {
=09width:100%;
}

/* header */
#header .logo {
=09width:115px;
=09padding:18px 0 0 0;
}

#header .navigation {
=09text-align:right;
=09padding:5px 0;
=09border-bottom:1px solid #ccc;
=09white-space:nowrap;
}

#header .navigation a {
=09border-right:0px solid #CCC;
=09margin-right:0px;
=09padding-right:0px;
}

#header .navigation span {
=09text-decoration:none;
=09color:#CCC;
=09font-size:15px;
=09font-family:Arial, sans-serif;
}

#header .navigation a.last {
=09border:0;
=09margin:0;
=09padding:0;
}

#header .title {
=09text-align:right;
=09padding:7px 0 5px 0;
}

#header .title img {
=09padding:0 4px 0 0;
}

/* summary */
#summary a{
=09text-decoration:none;
=09color:#006699;
}

#summary p {
=09margin:5px 0 0 0;
}

/* critical info */
#criticalInfo {
=09border-top:3px solid #2d3741;
=09width: 95%;
}

#criticalInfo td {
=09font-size:14px;
=09padding:11px 18px 18px 18px;
=09width:50%;
}

#criticalInfo .detailsContent {
    background-color:#efefef;
}

#criticalInfo .label {
=09color:#666;
}

#criticalInfo p {
=09margin:2px 0 9px 0;
}

#criticalInfo span {
=09color:#666;
}

#criticalInfo a {
=09font-size:11px;
=09color:#006699;
=09text-decoration:none;
}

#cancelOrder p {
    font: 11px/ 16px Arial, sans-serif;
    color: rgb(51, 51, 51);
}
/* desiredInformation */
#desiredInformation a {
=09text-decoration:none;
=09color:#006699;
}

/* buttons */
.button {
=09text-decoration:none !important;
=09display:block;
=09height:26px;
=09display:inline-block;
=09margin:0 0 2px 0;
}

.button.small {
=09height:20px;
}

.button .expandable {
=09float:left;
=09overflow:hidden;
}

.button .text {
=09color:#000f68;
=09font-size:12px;
=09position:relative;
=09z-index:10;
=09top:-22px;
=09left:-12px;
=09text-align:center;
}

.button.secondary .text {
=09left:0;
}

.button.small .text {
=09top:-20px;
=09left:0;
=09font-size:11px;
}

/* supporting details */
#supportingDetails {
=09font-size:11px;
=09color:#666;
=09line-height:14px;
=09margin:10px 20px;
}

#supportingDetails {
=09margin:0 18px 0 18px;
}

/* order details */
#orderDetails h3 {
=09border-bottom:1px solid #ccc;
=09margin:0 0 3px 0;
=09padding:0 0 3px 0;
}

#orderDetails .frame {
=09padding:16px 20px 6px 20px;
}

#orderDetails .orderDate {
=09color:#666666;
=09font-size:12px;
}

#orderDetails span {
=09font-size:12px;
=09color:#666;
}

#orderDetails p {
=09margin:2px 0 9px 0;
}

/* item details */
#itemDetails {
=09width: 95%;
}

#itemDetails .photo {
=09width:150px;
=09text-align:center;
=09padding:16px 0 10px 0;
}

#itemDetails .photo .play img {
=09margin:3px 0 0 0;
}

#itemDetails .name {
=09color:#666;
=09padding:10px 0 0 0;
}

#itemDetails ul {
=09margin:0;
=09padding:0;
}

#itemDetails ul li {
=09list-style-type:none;
=09line-height:14px;
=09padding:0 0 4px 0;
}

#itemDetails ul li a {
=09font-size:14px;
}

#itemDetails .name p {
=09margin:0;
=09padding:10px 0 0 0;
=09font-size:12px;
=09line-height:14px;
}

#itemDetails .name p a {
=09text-decoration:none;
    color:#006699;
}


#itemDetails .name .share {
=09margin:3px 0 15px 0;
}

#itemDetails .name .share a {
=09margin: 4px 5px 0 0;
=09font-size:0;
}

#itemDetails .name .supportingDetails,
#itemDetails .name .supportingDetails a {
=09margin:8px 0 0 0;
=09font-size:12px;
}

#itemDetails .price {
=09text-align:right;
=09font-size:14px;
=09padding:10px 10px 0 10px;
=09white-space:nowrap;
}

#itemDetails .price a {
=09text-decoration:none;
    color:#006699;
}

#itemDetails .divider {
=09border-top:1px solid #eaeaea;
=09padding:0 0 16px 0;
}

#itemDetails .name table {
border-collapse: separate;
}

/* cost breakdown */
#costBreakdow {
=09width:95%;
}

#costBreakdown td {
=09text-align:right;
=09line-height:18px;
=09padding:0 10px 0 0;
}

#costBreakdownNoAsin td {
    text-align: left !important;
    line-height: 18px;
    padding: 0 10px 0 0;
}

#costBreakdown .divider, #costBreakdownNoAsin .divider {
=09border-top:1px solid #eaeaea;
=09padding:0 0 16px 0;
}

#costBreakdown .end, #costBreakdownNoAsin .end {
=09padding:0 0 16px 0;
}

#costBreakdown .start, #costBreakdownNoAsin .start {
=09padding: 0 0 16px 0;
}

#costBreakdown .price {
=09width:150px;
}

#costBreakdownNoAsin .price {
=09width: 70%;
}

#costBreakdown .total, #costBreakdownNoAsin .total {
=09font-size:14px;
=09font-weight:bold;
=09font: 12px/ 16px Arial, sans-serif;
}

#costBreakdown .disclaimer, #costBreakdownNoAsin .disclaimer {
=09text-align:right;
=09font: 12px
}

.deferred-payments-separator {
    border: 1px solid #cbcfd4;
}

/* additional shipments */
#additionalShipments {
=09font-size:11px;
}

#additionalShipments h3 {
=09margin:10px 0 0 0;
}

#additionalShipments p {
=09margin:10px 20px 0px 20px;
}

#additionalShipments .orderDate {
=09color:#666666;
=09font-size:12px;
}

#additionalShipments .details {
=09padding:10px 20px 10px 20px;
}

#additionalShipments .details .label {
=09color:#666666;
=09font-weight:bold;
}

#additionalShipments .details .edd, #additionalShipments .details .quantity=
 {
=09font-weight:bold;
}

/* self service */
#selfService .divider {
=09border-top:1px solid #ccc;
=09padding:0 0 16px 0;
}

#selfService a{
=09text-decoration:none;
=09color:#006699;
}

/* closing */
#closing {
=09padding:0 0 0 0;
=09border-collapse:collapse;
}

#closing p {
=09padding:0 0 20px 0;
=09border-bottom:1px solid #eaeaea;
=09margin:10px 0 0 0;
}

#closing .signature {
=09font-size:16px;
=09font-weight:bold;
}

#closing a{
=09text-decoration:none;
=09color:#006699;
}

/* marketing content */
#marketingContent {
=09border-bottom:1px solid #eaeaea;
=09border-collapse:collapse;
=09padding:0;
}

#marketingContent td.recs {
=09padding:10px 0;
}

#marketingContent td.right {
=09padding:10px 15px 10px 0;
}

#marketingContent td.left {
=09padding:10px 0 10px 15px;
}

#middleCenterMC {
=09text-align:center;
}

#middleCenterMC img {
=09width:85%;
}

/* legal copy */
#legalCopy td {
=09padding:20px 0 0 0;
}

#legalCopy p {
=09font-size:11px;
=09color:#666;
=09line-height:16px;
=09margin:0 0 10px 0;
        font:11px;
}

#legalCopy a {
=09font:11px/16px Arial, sans-serif;
=09text-decoration:none;
=09color:#006699;
}

#legalExceptionsList li{
=09padding-left: 10px;
}

#extendedLegalInfoBlock {
=09font-size:11px;
=09color:#666;
=09line-height:16px;
=09margin:0 0 10px 0;
}

/* reg fee */
#regFee td {
=09colspan: "2";
=09border-top:1px solid #ccc;
}

/* html button */

.link {
    color: rgb(17, 17, 17) !important;
    text-decoration: none !important;
    font: 16px/ 18px Arial, sans-serif !important;
    padding: 10px 12px;
    line-height: 1.5;
    border-radius: 10px;
    border-style: solid;
    border-color: #000000;
    border-width: 1px;
    background: #F0C14B linear-gradient(#F7DFA5, #F0C14B) repeat scroll 0% =
0%;
    background-color: #F0C14B;
    white-space: nowrap;
}

.a-icon-info, .a-icon-small {
    background-position: -166px -130px;
    height: 13px;
    width: 14px;
}

.a-icon {
    background-image: url(https://m.media-amazon.com/images/G/01/AUIClients=
/AmazonUIBaseCSS-sprite_1x-28bd59af93d9b1c745bb0aca4de58763b54df7cf._V2_.pn=
g);
    -webkit-background-size: 400px 670px;
    display: inline-block;
}

.a-text-italic {
    font-style: italic !important;
}

.a-size-small {
    font-size: 12px !important;
    line-height: 1.5 !important;
}
.inline-block{
    display: inline-block;
}

/* Styling for Top Amabot Banner */
#topAmabotBannerTextArea #topAmabotBannerHeaderText {
    font: bold 14px Arial, sans-serif;
    color: #333;
}

#topAmabotBannerTextArea #topAmabotBannerHeaderTextClickable {
    font: bold 14px Arial, sans-serif;
    color: #069;
}

#topAmabotBannerTextArea #topAmabotBannerBodyPrefix {
    font: 14px Arial, sans-serif;
    color: #333;
}

#topAmabotBannerTextArea #topAmabotBannerBodyPrefixClickable {
    font: bold 14px Arial, sans-serif;
    color: #069;
}

#topAmabotBannerTextArea #topAmabotBannerBody {
    font: 14px Georgia, serif;
    line-height: 1.2;
    color: #333;
}

#topAmabotBannerTextArea #topAmabotBannerBodyEmphasized {
    font: 14px Georgia, serif;
    line-height: 1.2;
    font-style: italic;
    color: #333;
}

/* To fix the blue href links in gmail clients */
.noColorAndTextDecoration a {
    color:#000 !important;
    text-decoration:none !important;
}

    .buttonComponent {
    border-collapse: separate;
    text-decoration: none !important;
    line-height: 47px;
    border-radius: 3px;
    border-style: solid;
    border-color: #CBA957;
    border-width: 1px;
    background: #F0C354 linear-gradient(#F7DEA2, #F0C354) repeat scroll 0% =
0%;
    background-color: #ffa723;
    white-space: nowrap;
    min-width: 222px;
    min-height: 45px;
    }

    .buttonComponentLink {
    color: rgb(27, 27, 27) !important;
    font: 16px/ 18px Arial, sans-serif !important;
    display: table-cell;
    margin: auto 0;
    vertical-align: middle;

    min-width: 222px;
    height: 45px;
    }


</style>=20
  <title>
Ihre Amazon.de Bestellung von &quot;2&quot; x &quot;Rankie DisplayPort (DP)=
 auf...&quot;.  </title>=20
 </head>=20
 <body style=3D"background-color: rgb(255, 255, 255); margin: 0; font: 12px=
/ 16px Arial, sans-serif"><img width=3D"1" height=3D"1" src=3D"https://www.=
amazon.de/gp/r.html?C=3D3ILR4VQSVD3HI&K=3D3K734VO7BC0WC&M=3Durn:rtn:msg:202=
00702160302e158803b894243b8a6e653377fe0p0eu&R=3D2W7KAJ2Q0GI7H&T=3DO&U=3Dhtt=
ps%3A%2F%2Fimages-eu.ssl-images-amazon.com%2Fimages%2FG%2F01%2Fnav%2Ftransp=
.gif&H=3DHAXGG3P4WD3511GVJPQELZ91RMAA&ref_=3Dpe_3044161_185740101_opens" />=
=20
  <table id=3D"container" dir=3D"ltr" style=3D"width: 640px; color: rgb(51,=
 51, 51); margin: 0 auto; border-collapse: collapse">=20
   <tbody>
    <tr>=20
     <td class=3D"frame" style=3D"padding: 0 20px 20px 20px; vertical-align=
: top; font-size: 12px; line-height: 16px; font-family: Arial, sans-serif">=
=20
      <table id=3D"main" style=3D"width: 100%; border-collapse: collapse">=
=20
       <tbody>
        <tr>=20
         <td style=3D"vertical-align: top; font-size: 12px; line-height: 16=
px; font-family: Arial, sans-serif">=20
          <table id=3D"header" style=3D"width: 100%; border-collapse: colla=
pse">=20
           <tbody>
            <tr>=20
             <td rowspan=3D"2" class=3D"logo" style=3D"width: 115px; paddin=
g: 18px 0 0 0; vertical-align: top; font-size: 12px; line-height: 16px; fon=
t-family: Arial, sans-serif"> <a href=3D"https://www.amazon.de/gp/f.html?C=
=3D3ILR4VQSVD3HI&K=3D3K734VO7BC0WC&M=3Durn:rtn:msg:20200702160302e158803b89=
4243b8a6e653377fe0p0eu&R=3D27K4RWLPAE9CF&T=3DC&U=3Dhttps%3A%2F%2Fwww.amazon=
.de%2Fref%3Dpe_3044161_185740101_TE_logo&H=3D6VXKJEG5PQG8TRTAAPL7L4Z3DJGA&r=
ef_=3Dpe_3044161_185740101_TE_logo" title=3D"Besuchen Sie Amazon.de" style=
=3D"text-decoration: none; color: rgb(0, 102, 153); font: 12px/ 16px Arial,=
 sans-serif"> <img alt=3D"Amazon.de" src=3D"http://g-ec2.images-amazon.com/=
images/G/01/e-mail/logos/a_de_prime_logo_48.gif" style=3D"border: 0; width:=
 115px" /> </a> </td>=20
             <td class=3D"navigation" style=3D"text-align: right; padding: =
5px 0; border-bottom: 1px solid rgb(204, 204, 204); white-space: nowrap; ve=
rtical-align: top; font-size: 12px; line-height: 16px; font-family: Arial, =
sans-serif"> </td>
             <td style=3D"width: 100%; padding: 7px 5px 0; text-align: righ=
t; border-bottom: 1px solid rgb(204, 204, 204); white-space: nowrap; vertic=
al-align: top; font-size: 12px; line-height: 16px; font-family: Arial, sans=
-serif" class=3D"navigation"> <a href=3D"https://www.amazon.de/gp/r.html?C=
=3D3ILR4VQSVD3HI&K=3D3K734VO7BC0WC&M=3Durn:rtn:msg:20200702160302e158803b89=
4243b8a6e653377fe0p0eu&R=3D1EJDPDY1W5T2H&T=3DC&U=3Dhttps%3A%2F%2Fwww.amazon=
.de%2Fgp%2Fcss%2Fyour-orders-access%3Fref_%3Dpe_3044161_185740101_TE_yo&H=
=3DFZLCQZFYRRFRVKSBCUL12VGQLW8A&ref_=3Dpe_3044161_185740101_TE_yo" style=3D=
"border-right: 0px solid rgb(204, 204, 204); margin-right: 0px; padding-rig=
ht: 0px; text-decoration: none; color: rgb(0, 102, 153); font: 12px/ 16px A=
rial, sans-serif">Meine Bestellungen</a> </td>=20
             <td class=3D"navigation" style=3D"text-align: right; padding: =
5px 0; border-bottom: 1px solid rgb(204, 204, 204); white-space: nowrap; ve=
rtical-align: top; font-size: 12px; line-height: 16px; font-family: Arial, =
sans-serif"> <span style=3D"text-decoration: none; color: rgb(204, 204, 204=
); font-size: 15px; font-family: Arial, sans-serif">&nbsp;|&nbsp;</span> <a=
 href=3D"https://www.amazon.de/gp/f.html?C=3D3ILR4VQSVD3HI&K=3D3K734VO7BC0W=
C&M=3Durn:rtn:msg:20200702160302e158803b894243b8a6e653377fe0p0eu&R=3D347K9Z=
HXB6NDF&T=3DC&U=3Dhttps%3A%2F%2Fwww.amazon.de%2Fgp%2Fcss%2Fyour-account-acc=
ess%3Fref_%3Dpe_3044161_185740101_TE_ya&H=3DBSAMC3TFK0AQA3SKVIKJMK3NHX8A&re=
f_=3Dpe_3044161_185740101_TE_ya" style=3D"border-right: 0px solid rgb(204, =
204, 204); margin-right: 0px; padding-right: 0px; text-decoration: none; co=
lor: rgb(0, 102, 153); font: 12px/ 16px Arial, sans-serif">Mein Konto</a> <=
span style=3D"text-decoration: none; color: rgb(204, 204, 204); font-size: =
15px; font-family: Arial, sans-serif">&nbsp;|&nbsp;</span> <a href=3D"https=
://www.amazon.de/gp/r.html?C=3D3ILR4VQSVD3HI&K=3D3K734VO7BC0WC&M=3Durn:rtn:=
msg:20200702160302e158803b894243b8a6e653377fe0p0eu&R=3D3EXKZSPFDDACD&T=3DC&=
U=3Dhttps%3A%2F%2Fwww.amazon.de%2Fref%3Dpe_3044161_185740101_TE_cn&H=3DAOBA=
OHCJPFAA3UAIKC6YXV3V30GA&ref_=3Dpe_3044161_185740101_TE_cn" style=3D"border=
-right: 0px solid rgb(204, 204, 204); margin-right: 0px; padding-right: 0px=
; text-decoration: none; color: rgb(0, 102, 153); font: 12px/ 16px Arial, s=
ans-serif">Amazon.de</a> </td> =20
            </tr>=20
            <tr>=20
             <td colspan=3D"3" class=3D"title" style=3D"text-align: right; =
padding: 7px 0 5px 0; vertical-align: top; font-size: 12px; line-height: 16=
px; font-family: Arial, sans-serif"> <h2 style=3D"font-size: 20px; line-hei=
ght: 24px; margin: 0; padding: 0; font-weight: normal; color: rgb(0, 0, 0) =
!important"> Bestellbest&auml;tigung </h2> Bestellung # <a href=3D"https://=
www.amazon.de/gp/r.html?C=3D3ILR4VQSVD3HI&K=3D3K734VO7BC0WC&M=3Durn:rtn:msg=
:20200702160302e158803b894243b8a6e653377fe0p0eu&R=3D1QMS0UQQUXREW&T=3DC&U=
=3Dhttps%3A%2F%2Fwww.amazon.de%2Fgp%2Fcss%2Fsummary%2Fedit.html%3Fie%3DUTF8=
%26orderID%3D305-7109682-4785149%26ref_%3Dpe_3044161_185740101_TE_order&H=
=3DDECVG1TV8VDLKUVGOYD0COUEFOQA&ref_=3Dpe_3044161_185740101_TE_order" class=
=3D"inline-block" style=3D"display: inline-block; text-decoration: none; co=
lor: rgb(0, 102, 153); font: 12px/ 16px Arial, sans-serif">305-7109682-4785=
149 </a> <br /> </td>=20
            </tr>=20
           </tbody>
          </table> </td>=20
        </tr>=20
        <tr>=20
         <td style=3D"vertical-align: top; font-size: 12px; line-height: 16=
px; font-family: Arial, sans-serif">=20
          <table id=3D"summary" style=3D"width: 100%; border-collapse: coll=
apse">=20
           <tbody>
            <tr>=20
             <td style=3D"vertical-align: top; font-size: 12px; line-height=
: 16px; font-family: Arial, sans-serif"> <h3 style=3D"font-size: 18px; colo=
r: rgb(204, 102, 0); margin: 15px 0 0 0; font-weight: normal"> Guten Tag, <=
/h3> <p style=3D"margin: 5px 0 0 0; font: 12px/ 16px Arial, sans-serif"> vi=
elen Dank f&uuml;r Ihre Bestellung. Wir werden Sie benachrichtigen, sobald =
Ihr(e) Artikel versandt wurde(n). Sie finden das voraussichtliche Lieferdat=
um weiter unten. Um Ihre Bestellung anzusehen oder zu ver&auml;ndern, besuc=
hen Sie <a href=3D"https://www.amazon.de/gp/r.html?C=3D3ILR4VQSVD3HI&K=3D3K=
734VO7BC0WC&M=3Durn:rtn:msg:20200702160302e158803b894243b8a6e653377fe0p0eu&=
R=3D1ZYPJRPPWX8F4&T=3DC&U=3Dhttps%3A%2F%2Fwww.amazon.de%2Fgp%2Fcss%2Fyour-o=
rders-access%3Fref_%3Dpe_3044161_185740101_TE_gs&H=3DATU2FNKIYJHH3SXA1FVNOJ=
3N3BWA&ref_=3Dpe_3044161_185740101_TE_gs" style=3D"text-decoration: none; c=
olor: rgb(0, 102, 153); font: 12px/ 16px Arial, sans-serif">Meine Bestellun=
gen</a> auf unserer Amazon.de Website. </p> </td>=20
            </tr>=20
            <tr>=20
             <td style=3D"vertical-align: top; font-size: 12px; line-height=
: 16px; font-family: Arial, sans-serif"> </td>=20
            </tr>=20
           </tbody>
          </table> </td>=20
        </tr>=20
        <tr>=20
         <td style=3D"vertical-align: top; font-size: 12px; line-height: 16=
px; font-family: Arial, sans-serif">=20
          <table id=3D"desiredInformation" style=3D"width: 100%; border-col=
lapse: collapse">=20
          </table> </td>=20
        </tr>=20
        <tr>=20
         <td style=3D"vertical-align: top; font-size: 12px; line-height: 16=
px; font-family: Arial, sans-serif">=20
          <table style=3D"width: 100%; border-top: 3px solid rgb(45, 55, 65=
); border-collapse: collapse" id=3D"criticalInfo">=20
           <tbody>
            <tr class=3D"detailsContent" style=3D"background-color: rgb(239=
, 239, 239)">=20
             <td style=3D"font-size: 14px; padding: 11px 18px 18px 18px; wi=
dth: 50%; vertical-align: top; line-height: 16px; font-family: Arial, sans-=
serif"> <p style=3D"margin: 2px 0 9px 0; font: 12px/ 16px Arial, sans-serif=
"> <span style=3D"color: rgb(102, 102, 102)">Zustellung: </span> <br /> <b =
style=3D"color:#009900;"> Freitag, 3 Juli </b> </p> <p style=3D"margin: 2px=
 0 9px 0; font: 12px/ 16px Arial, sans-serif"> <span style=3D"color: rgb(10=
2, 102, 102)">Versandart: </span> <br /> <b> <img src=3D"https://m.media-am=
azon.com/images/G/30/email/logos/prime_39x10.png" /> Premiumversand </b> </=
p> <p style=3D"margin: 2px 0 9px 0; font: 12px/ 16px Arial, sans-serif"> <s=
pan style=3D"color: rgb(102, 102, 102)">Gew&auml;hlte Versandoption: </span=
> <br /> <b>Artikel versenden, sobald sie verf&uuml;gbar sind. </b> </p> <b=
r /> <a target=3D"_blank" class=3D"link" href=3D"https://www.amazon.de/gp/r=
.html?C=3D3ILR4VQSVD3HI&K=3D3K734VO7BC0WC&M=3Durn:rtn:msg:20200702160302e15=
8803b894243b8a6e653377fe0p0eu&R=3D69RQ1YMOBT1N&T=3DC&U=3Dhttps%3A%2F%2Fwww.=
amazon.de%2Fgp%2Fcss%2Fsummary%2Fedit.html%3Fie%3DUTF8%26orderID%3D305-7109=
682-4785149%26ref_%3Dpe_3044161_185740101_TE_on_sh&H=3DGIDFM6S3RTCDXPAZUG90=
8N6QULIA&ref_=3Dpe_3044161_185740101_TE_on_sh" style=3D"font-size: 11px; co=
lor: rgb(17, 17, 17) !important; text-decoration: none !important; font: 16=
px/ 18px Arial, sans-serif !important; padding: 10px 12px; line-height: 1.5=
; border-radius: 10px; border-style: solid; border-color: rgb(0, 0, 0); bor=
der-width: 1px; background: rgb(240, 193, 75) linear-gradient(rgb(247,223,1=
65),rgb(240,193,75)) repeat scroll 0% 0%; background-color: rgb(240, 193, 7=
5); white-space: nowrap">Bestelldetails</a> </td>=20
             <td style=3D"font-size: 14px; padding: 11px 18px 18px 18px; wi=
dth: 50%; vertical-align: top; line-height: 16px; font-family: Arial, sans-=
serif"> <p style=3D"margin: 2px 0 9px 0; font: 12px/ 16px Arial, sans-serif=
"> <span style=3D"color: rgb(102, 102, 102)">Die Bestellung geht an: </span=
> <br /> <b> Thomas <br /> Henstedt-Ulzburg <br /> Deutschland </b> </p> </=
td>
            </tr>=20
           </tbody>
          </table> </td>=20
        </tr>=20
        <tr>=20
         <td style=3D"border-bottom: 1px solid rgb(204, 204, 204); vertical=
-align: top; font-size: 12px; line-height: 16px; font-family: Arial, sans-s=
erif"> <h3 style=3D"font-size: 18px; color: rgb(204, 102, 0); margin: 15px =
0 0 0; font-weight: normal">Bestell&uuml;bersicht</h3> </td>=20
        </tr>=20
        <tr>=20
         <td style=3D"vertical-align: top; font-size: 12px; line-height: 16=
px; font-family: Arial, sans-serif">=20
          <table id=3D"orderDetails" style=3D"width: 100%; border-collapse:=
 collapse">=20
           <tbody>
            <tr>=20
             <td style=3D"vertical-align: top; font-size: 12px; line-height=
: 16px; font-family: Arial, sans-serif"> Bestellnummer #<a href=3D"https://=
www.amazon.de/gp/r.html?C=3D3ILR4VQSVD3HI&K=3D3K734VO7BC0WC&M=3Durn:rtn:msg=
:20200702160302e158803b894243b8a6e653377fe0p0eu&R=3D2JXGG1S0SNF1H&T=3DC&U=
=3Dhttps%3A%2F%2Fwww.amazon.de%2Fgp%2Fcss%2Fsummary%2Fedit.html%3Fie%3DUTF8=
%26orderID%3D305-7109682-4785149%26ref_%3Dpe_3044161_185740101_TE_order&H=
=3DNZOKIGXEIINIHEAC2BAIAJPKUISA&ref_=3Dpe_3044161_185740101_TE_order" class=
=3D"inline-block" style=3D"display: inline-block; text-decoration: none; co=
lor: rgb(0, 102, 153); font: 12px/ 16px Arial, sans-serif">305-7109682-4785=
149</a> <br /> <span style=3D"font-size: 12px; color: rgb(102, 102, 102)">A=
ufgegeben am 2. Juli 2020</span> </td>=20
            </tr>=20
           </tbody>
          </table> </td>=20
        </tr>=20
        <tr>=20
         <td style=3D"padding-left: 2px; vertical-align: top; font-size: 12=
px; line-height: 16px; font-family: Arial, sans-serif">=20
          <table style=3D"width: 95%; border-collapse: collapse" id=3D"cost=
BreakdownNoAsin">=20
           <tbody>
            <tr>=20
             <td colspan=3D"2" class=3D"start" style=3D"padding: 0 0 16px 0=
; text-align: left !important; line-height: 18px; vertical-align: top; font=
-size: 12px; font-family: Arial, sans-serif"></td>=20
            </tr>=20
            <tr>=20
             <td style=3D"text-align: left !important; line-height: 18px; p=
adding: 0 10px 0 0; vertical-align: top; font-size: 12px; font-family: Aria=
l, sans-serif"> Zwischensumme: </td>=20
             <td class=3D"price" style=3D"width: 70%; text-align: left !imp=
ortant; line-height: 18px; padding: 0 10px 0 0; vertical-align: top; font-s=
ize: 12px; font-family: Arial, sans-serif"> EUR 20,68 </td>=20
            </tr>=20
            <tr>=20
             <td style=3D"text-align: left !important; line-height: 18px; p=
adding: 0 10px 0 0; vertical-align: top; font-size: 12px; font-family: Aria=
l, sans-serif"> Verpackung und Versand: </td>=20
             <td class=3D"price" style=3D"width: 70%; text-align: left !imp=
ortant; line-height: 18px; padding: 0 10px 0 0; vertical-align: top; font-s=
ize: 12px; font-family: Arial, sans-serif"> EUR 0,00 </td>=20
            </tr>=20
            <tr>=20
             <td colspan=3D"2" style=3D"text-align: left !important; line-h=
eight: 18px; padding: 0 10px 0 0; vertical-align: top; font-size: 12px; fon=
t-family: Arial, sans-serif"> <p style=3D"margin: 4px 0 0 0; font: 12px/ 16=
px Arial, sans-serif"></p> </td>=20
            </tr>=20
            <tr>=20
             <td style=3D"text-align: left !important; line-height: 18px; p=
adding: 0 10px 0 0; vertical-align: top; font-size: 12px; font-family: Aria=
l, sans-serif"> Zwischensumme ohne USt.: </td>=20
             <td class=3D"price" style=3D"width: 70%; text-align: left !imp=
ortant; line-height: 18px; padding: 0 10px 0 0; vertical-align: top; font-s=
ize: 12px; font-family: Arial, sans-serif"> EUR 20,68 </td>=20
            </tr>=20
            <tr>=20
             <td style=3D"text-align: left !important; line-height: 18px; p=
adding: 0 10px 0 0; vertical-align: top; font-size: 12px; font-family: Aria=
l, sans-serif"> Umsatzsteuer: </td>=20
             <td class=3D"price" style=3D"width: 70%; text-align: left !imp=
ortant; line-height: 18px; padding: 0 10px 0 0; vertical-align: top; font-s=
ize: 12px; font-family: Arial, sans-serif"> EUR 3,30 </td>=20
            </tr>=20
            <tr>=20
             <td colspan=3D"2" style=3D"text-align: left !important; line-h=
eight: 18px; padding: 0 10px 0 0; vertical-align: top; font-size: 12px; fon=
t-family: Arial, sans-serif"> <p style=3D"margin: 4px 0 0 0; font: 12px/ 16=
px Arial, sans-serif"></p> </td>=20
            </tr>=20
            <tr>=20
             <td colspan=3D"2" style=3D"text-align: left !important; line-h=
eight: 18px; padding: 0 10px 0 0; vertical-align: top; font-size: 12px; fon=
t-family: Arial, sans-serif"> <p style=3D"margin: 4px 0 0 0; font: 12px/ 16=
px Arial, sans-serif"></p> </td>=20
            </tr>=20
            <tr>=20
             <td class=3D"total" style=3D"font-size: 14px; font-weight: bol=
d; font: 12px/ 16px Arial, sans-serif; text-align: left !important; line-he=
ight: 18px; padding: 0 10px 0 0; vertical-align: top; font-family: Arial, s=
ans-serif"> <strong> Endbetrag inkl. USt.: </strong> </td>=20
             <td class=3D"total" style=3D"font-size: 14px; font-weight: bol=
d; font: 12px/ 16px Arial, sans-serif; text-align: left !important; line-he=
ight: 18px; padding: 0 10px 0 0; vertical-align: top; font-family: Arial, s=
ans-serif"> <strong>EUR 23,98</strong> </td>=20
            </tr>=20
            <tr>=20
             <td style=3D"text-align: left !important; line-height: 18px; p=
adding: 0 10px 0 0; vertical-align: top; font-size: 12px; font-family: Aria=
l, sans-serif"> <p style=3D"margin: 4px 0 0 0; font: 12px/ 16px Arial, sans=
-serif"></p> </td>=20
            </tr>=20
            <tr>=20
             <td style=3D"text-align: left !important; line-height: 18px; p=
adding: 0 10px 0 0; vertical-align: top; font-size: 12px; font-family: Aria=
l, sans-serif"> <p style=3D"margin: 4px 0 0 0; font: 12px/ 16px Arial, sans=
-serif"></p> </td>=20
            </tr>=20
            <tr>=20
             <td rowspan=3D"2" style=3D"text-align: left !important; line-h=
eight: 18px; padding: 0 10px 0 0; vertical-align: top; font-size: 12px; fon=
t-family: Arial, sans-serif"> Gew&auml;hlte Zahlungsart: </td>=20
             <td class=3D"price" style=3D"width: 70%; text-align: left !imp=
ortant; line-height: 18px; padding: 0 10px 0 0; vertical-align: top; font-s=
ize: 12px; font-family: Arial, sans-serif"> Bankeinzug </td>=20
            </tr>=20
            <tr></tr>=20
            <tr>=20
             <td colspan=3D"2" class=3D"end" style=3D"padding: 0 0 16px 0; =
text-align: left !important; line-height: 18px; vertical-align: top; font-s=
ize: 12px; font-family: Arial, sans-serif"></td>=20
            </tr>=20
            <tr>=20
             <td colspan=3D"2" class=3D"divider" style=3D"border-top: 1px s=
olid rgb(234, 234, 234); padding: 0 0 16px 0; text-align: left !important; =
line-height: 18px; vertical-align: top; font-size: 12px; font-family: Arial=
, sans-serif"></td>=20
            </tr>=20
           </tbody>
          </table> </td>=20
        </tr>=20
        <tr>=20
         <td style=3D"vertical-align: top; font-size: 12px; line-height: 16=
px; font-family: Arial, sans-serif"> </td>=20
        </tr>=20
        <tr>=20
         <td style=3D"vertical-align: top; font-size: 12px; line-height: 16=
px; font-family: Arial, sans-serif">=20
          <table id=3D"selfService" style=3D"width: 100%; border-collapse: =
collapse">=20
           <tbody>
            <tr>=20
             <td style=3D"vertical-align: top; font-size: 12px; line-height=
: 16px; font-family: Arial, sans-serif"> <p style=3D"margin: 4px 0 0 0; fon=
t: 12px/ 16px Arial, sans-serif"> Wenn Sie ein mobiles Ger&auml;t verwenden=
, k&ouml;nnen Sie mit der kostenlosen <a href=3D"https://www.amazon.de/gp/r=
.html?C=3D3ILR4VQSVD3HI&K=3D3K734VO7BC0WC&M=3Durn:rtn:msg:20200702160302e15=
8803b894243b8a6e653377fe0p0eu&R=3D3KERE4KCBQP3J&T=3DC&U=3Dhttps%3A%2F%2Fwww=
.amazon.de%2Fb%3Fnode%3D4951330031%26ref%3DTE_%26ref_%3Dpe_3044161_18574010=
1&H=3DZHSBKDKLUHM6GFZG94VTEOXTRNEA&ref_=3Dpe_3044161_185740101" style=3D"te=
xt-decoration: none; color: rgb(0, 102, 153); font: 12px/ 16px Arial, sans-=
serif">Amazon app</a> Lieferbenachrichtigungen empfangen und den Verlauf Ih=
rer Sendung auch unterwegs verfolgen. </p> </td>=20
            </tr>=20
           </tbody>
          </table> </td>=20
        </tr>=20
        <tr>=20
         <td style=3D"vertical-align: top; font-size: 12px; line-height: 16=
px; font-family: Arial, sans-serif">=20
          <table id=3D"closing" style=3D"width: 100%; padding: 0 0 0 0; bor=
der-collapse: collapse">=20
           <tbody>
            <tr>=20
             <td style=3D"vertical-align: top; font-size: 12px; line-height=
: 16px; font-family: Arial, sans-serif"> <p style=3D"padding: 0 0 20px 0; b=
order-bottom: 1px solid rgb(234, 234, 234); margin: 10px 0 0 0; font: 12px/=
 16px Arial, sans-serif"> Wir freuen uns auf Ihren n&auml;chsten Besuch! <b=
r /> <span class=3D"signature" style=3D"font-size: 16px; font-weight: bold"=
> <strong>Amazon.de</strong> </span> </p> </td>=20
            </tr>=20
           </tbody>
          </table> </td>=20
        </tr>=20
        <tr>=20
         <td style=3D"vertical-align: top; font-size: 12px; line-height: 16=
px; font-family: Arial, sans-serif"> </td>=20
        </tr>=20
        <tr>=20
         <td style=3D"vertical-align: top; font-size: 12px; line-height: 16=
px; font-family: Arial, sans-serif">=20
          <table id=3D"legalCopy" style=3D"width: 100%; border-collapse: co=
llapse">=20
           <tbody>
            <tr>=20
             <td style=3D"padding: 20px 0 0 0; vertical-align: top; font-si=
ze: 12px; line-height: 16px; font-family: Arial, sans-serif"> <p style=3D"f=
ont-size: 11px; color: rgb(102, 102, 102); line-height: 16px; margin: 0 0 1=
0px 0; font: 11px"> Artikel mit dem Hinweis &quot;<a href=3D"https://www.am=
azon.de/gp/f.html?C=3D3ILR4VQSVD3HI&K=3D3K734VO7BC0WC&M=3Durn:rtn:msg:20200=
702160302e158803b894243b8a6e653377fe0p0eu&R=3D1CHIND215E56O&T=3DC&U=3Dhttps=
%3A%2F%2Fwww.amazon.de%2Fhelp%2Fen%2Ffba%3Fref_%3Dpe_3044161_185740101_TE_h=
elpfba&H=3DWFVS23TTCVD3R2CSQCAPJCXAL8MA&ref_=3Dpe_3044161_185740101_TE_help=
fba" style=3D"font: 11px/ 16px Arial, sans-serif; text-decoration: none; co=
lor: rgb(0, 102, 153)">Versand durch Amazon</a>&quot; werden bei einem Drit=
tanbieter gekauft, aber von einem unserer Logistikzentren an Sie verschickt=
. Hierzu z&auml;hlen auch Artikel, die Sie &uuml;ber Amazon.de Warehouse De=
als erwerben. Warehouse Deals ist ein Handelsname der Amazon EU S.a.r.l. </=
p> <p style=3D"font-size: 11px; color: rgb(102, 102, 102); line-height: 16p=
x; margin: 0 0 10px 0; font: 11px">Wir weisen darauf hin, dass Verk&auml;uf=
er m&ouml;glicherweise zus&auml;tzliche Informationen, wie beispielsweise d=
ie USt-Identifikationsnummer anfragen werden, um korrekte Rechnungen ausste=
llen zu k&ouml;nnen. </p> </td>=20
            </tr>=20
            <tr>=20
             <td style=3D"padding: 0; vertical-align: top; font-size: 12px;=
 line-height: 16px; font-family: Arial, sans-serif"> <p style=3D"font-size:=
 11px; color: rgb(102, 102, 102); line-height: 16px; margin: 0 0 10px 0; fo=
nt: 11px">Bitte beachten Sie: Diese E-Mail dient lediglich der Best&auml;ti=
gung des Einganges Ihrer Bestellung und stellt noch keine Annahme Ihres Ang=
ebotes auf Abschluss eines Kaufvertrages dar. Ihr Kaufvertrag f&uuml;r eine=
n Artikel kommt zu Stande, wenn wir Ihre Bestellung annehmen, indem wir Ihn=
en eine <a href=3D"https://www.amazon.de/gp/r.html?C=3D3ILR4VQSVD3HI&K=3D3K=
734VO7BC0WC&M=3Durn:rtn:msg:20200702160302e158803b894243b8a6e653377fe0p0eu&=
R=3D2W83R18USND4M&T=3DC&U=3Dhttps%3A%2F%2Fwww.amazon.de%2Fgp%2Fhelp%2Fcusto=
mer%2Fdisplay.html%3FnodeId%3D201909000%26ref_%3Dpe_3044161_185740101_TE_gt=
nc&H=3DQUZDHSAA8ZYKNTXAD4VOKJ50AWOA&ref_=3Dpe_3044161_185740101_TE_gtnc" st=
yle=3D"font: 11px/ 16px Arial, sans-serif; text-decoration: none; color: rg=
b(0, 102, 153)">E-Mail mit der Benachrichtigung zusenden, dass der Artikel =
an Sie abgeschickt wurde</a>. </p> <p style=3D"font-size: 11px; color: rgb(=
102, 102, 102); line-height: 16px; margin: 0 0 10px 0; font: 11px">Dies ist=
 eine automatisch versendete Nachricht. Bitte antworten Sie nicht auf diese=
s Schreiben, da die Adresse nur zur Versendung von E-Mails eingerichtet ist=
. </p> </td>=20
            </tr>=20
           </tbody>
          </table> </td>=20
        </tr>=20
       </tbody>
      </table> </td>=20
    </tr>=20
   </tbody>
  </table> =20
 <img width=3D"1" height=3D"1" src=3D"https://www.amazon.de/gp/r.html?C=3D3=
ILR4VQSVD3HI&K=3D3K734VO7BC0WC&M=3Durn:rtn:msg:20200702160302e158803b894243=
b8a6e653377fe0p0eu&R=3D1FGEVDPO1XWZJ&T=3DE&U=3Dhttps%3A%2F%2Fimages-eu.ssl-=
images-amazon.com%2Fimages%2FG%2F01%2Fnav%2Ftransp.gif&H=3DPHW8ZZUHO3KDAAMZ=
TQKRXUCPV4OA&ref_=3Dpe_3044161_185740101_open" /></body>
</html>
------=_Part_8641258_1497831523.1593705783795--

