Received: from mail-qt1-x844.google.com (mail-qt1-x844.google.com [IPv6:2607:f8b0:4864:20::844])
	by mail.netwake.de (Postfix) with ESMTPS id 5365F262957
	for <thomas.lamy@netwake.de>; Sun,  2 Dec 2018 03:01:04 +0100 (CET)
Received: from mail.netwake.de ([127.0.0.1])
	by localhost (srv.netwake.de [127.0.0.1]) (amavisd-new, port 10024)
	with ESMTP id ejpG18KNv_QN for <thomas.lamy@netwake.de>;
	Sun,  2 Dec 2018 03:01:04 +0100 (CET)
Received: from 856033030702 named unknown by gmailapi.google.com with
 HTTPREST; Sat, 1 Dec 2018 20:01:02 -0600
Received: by mail-qt1-x844.google.com with SMTP id k12so10172644qtf.7
        for <thomas.lamy@netwake.de>; Sat, 01 Dec 2018 18:01:04 -0800 (PST)
Received: from localhost (localhost [127.0.0.1])
	by mail.netwake.de (Postfix) with ESMTP id 2A07826299A
	for <thomas.lamy@netwake.de>; Sun,  2 Dec 2018 03:01:07 +0100 (CET)
From: "Shirt For Engineer" <tranvankien187@gmail.com>
To: <wasifcool143@gmail.com>
Subject: [Engineer] 100% SATISFACTION GUARANTEE - Engineer Tee Shirts & Linkedin Title Tee Shirts
Date: Sun, 2 Dec 2018 03:01:02 +0100
Message-ID: <CAMAjRkZcUFG-o5Xv_yJkSSyZnkLFfpPjqSY5rQK240JuPfQV6g@mail.gmail.com>
MIME-Version: 1.0
Content-Type: multipart/alternative;
	boundary="----=_NextPart_000_0FCE_01D48D7E.7CC57CA0"
X-Mailer: Microsoft Outlook 16.0
Authentication-Results: srv.netwake.de (amavisd-new); dkim=pass (2048-bit key)
	header.d=gmail.com
Authentication-Results: mail.netwake.de;
	dkim=pass (2048-bit key; unprotected) header.d=gmail.com header.i=@gmail.com header.b="IyAgODBW";
	dkim-atps=neutral
X-Spam-Flag: NO
X-Spam-Score: 2.843
X-Spam-Level: **
X-Spam-Status: No, score=2.843 tagged_above=-998 required=6.31
	tests=[DKIM_SIGNED=0.1, DKIM_VALID=-0.1, DKIM_VALID_AU=-0.1,
	DKIM_VALID_EF=-0.1, FREEMAIL_ENVFROM_END_DIGIT=0.25,
	FREEMAIL_FROM=0.001, HTML_IMAGE_RATIO_02=0.805, HTML_MESSAGE=0.001,
	PYZOR_CHECK=1.985, SPF_PASS=-0.001, UNPARSEABLE_RELAY=0.001,
	URIBL_BLOCKED=0.001] autolearn=no autolearn_force=no
Thread-Index: AQK6g/ED7vHea3XB/4RipcK9dfdKDg==
X-Google-DKIM-Signature: v=1; a=rsa-sha256; c=relaxed/relaxed;
        d=1e100.net; s=20161025;
        h=x-gm-message-state:from:mime-version:date:message-id:subject:to;
        bh=U7JSjHdE5O+2AWZuxUxXMWRQkIHPRr65XRiFGckOVD8=;
        b=aSd9cTTejo8OZqSzuvRvQHzpnRlygmMwEZI1lR1+S/G2tlHDNzKVQTUjCet2j7Zgmr
         soZ5FlMPur6+P7ELNrQdpp1+Y9+H24cQe7eFU4L/xtpDwXUWU8vgVRe3/IBkkQaT5W0r
         8DY5QDWOhksIDRMPFopw02EPuEZVKOah+sGlyvnU45KLagT3PyB5lD5RrMzWfTJAveOZ
         WQT2iDQ8q22LeHG/aZykTCZ3v3O7Mdfoks5HE1bVPOrKXIDRZLRjTPnNSmvCW9cgh8xE
         m00O02u7Dlv9WMs+jCRRbiXs+uuYhiWKg7K9CY9/tvq1cQw2WkkXtNjnBJYxLEJp5CFW
         bFlA==
X-Gm-Message-State: AA+aEWZeE8XcYhfYvBZfOK0bwazMhyz3M7e8P+aMm64qbK+TqxNhI8nV
	hxGnCAZ5+v6FrPZh7+oiQEC88C7l3wCA6E8b6Vg=
X-Google-Smtp-Source: AFSGD/UgO87cIFyHay413BB5xuTZ6j4ostcyvmcS1YtmZW2RHKS6ugryoVWqUp5Po2mb4kXVyaBtk/bK15E9FkyDTdw=
X-Received: by 2002:aed:20a3:: with SMTP id 32mr10924862qtb.9.1543716063106;
 Sat, 01 Dec 2018 18:01:03 -0800 (PST)
X-OlkEid: 00000000210166A0EB3D87409F27953E794B84C5070034AD76187591974DBF6C4F76951C873A0100270000000000690CD41CACCFE946902385A9FD2A8281000000000810000084565ED6BA67FD44AB720CA560699861

This is a multipart message in MIME format.

------=_NextPart_000_0FCE_01D48D7E.7CC57CA0
Content-Type: text/plain;
	charset="utf-8"
Content-Transfer-Encoding: 7bit









Engineer Tee Shirts & Linkedin Title Tee Shirts

From Sunfrog New 2018



 	  <https://www.sunfrog.com/7011334-90817631.html?80201> 
<https://www.sunfrog.com/2722210-41590891.html?80201> 
<https://www.sunfrog.com/3868972-53532480.html?80201> 
<https://www.sunfrog.com/2134588-33750211.html?80201>


 	  <https://www.sunfrog.com/484161-5873591.html?80201> 
<https://www.sunfrog.com/2101135-33270933.html?80201> 
<https://www.sunfrog.com/100279010-133449668.html?80201> 
<https://www.sunfrog.com/3868770-53530149.html?80201>


 	  <https://www.sunfrog.com/106919617-224679402.html?80201> 
<https://www.sunfrog.com/3234362-47887193.html?80201> 
<https://www.sunfrog.com/6051017-75131107.html?80201> 
<https://www.sunfrog.com/150553530-1270708957.html?80201>


 	  <https://www.sunfrog.com/4895251-60930509.html?80201> 
<https://www.sunfrog.com/111610049-358255072.html?80201> 
<https://www.sunfrog.com/4613850-58073948.html?80201> 
<https://www.sunfrog.com/1640242-27749105.html?80201>


 	  <https://www.sunfrog.com/4716308-59030042.html?80201> 
<https://www.sunfrog.com/103456819-173635028.html?80201> 
<https://www.sunfrog.com/1192330-18545192.html?80201> 
<https://www.sunfrog.com/97945849-109426392.html?80201>


Hello Sir, I'm A Student And I'm Honored To Be Selling T-Shirts For You . 
100% Cotton T-shirt. Have all size. All colors - Guaranteed Delivery in 3-5 
days for you (Guys + Ladies + Hoodie)

I know you very love Engineer Jobs and want have T-Shirt for Engineer Jobs.
I would be honored to sell T-Shirts for you, Help me have many orders. Thank 
you a lot, Have a good day.

Engineer Jobs T-Shirts Catalogue new design 2018:
IMPLEMENTATION ENGINEER
VICE PRESIDENT OF ENGINEER
SOFTWARE ENGINEER
DATABASE ENGINEER
SENIOR SOFTWARE ENGINEER
PRINCIPAL ENGINEER
PROJECT ENGINEER
..............And more here

Link Category : Engineer Tee Shirts Full Quotes Store 
<https://www.sunfrog.com/NguyenMyTrung/Shirts-For-Engineers>
Link Search : You Can Search All Tee Shirts Here, Trust Me ! 
<https://www.sunfrog.com/?id=80201>
If you're not like receive more mails: 
<http://makingmoneywithemailmarketing.com/Unsubscribe/CustomerUnsubscribeID10101986.php> 
Click Here To Unsubscribe
----------------------------------------------------------------------------------------------------------------------------------
>>>>>>>>>>>>>>>>>>>>>>Thank You A Lot | Have A Good 
>>>>>>>>>>>>>>>>>>>>>>Day<<<<<<<<<<<<<<<<<<<<<<

How to ? 1. Select color 2. Click the ADD TO CART button 3. Select your 
Preferred Size Quantity and Color 4. FINISH!






------=_NextPart_000_0FCE_01D48D7E.7CC57CA0
Content-Type: text/html;
	boundary="000000000000935b9e057c006775";
	charset="utf-8"
Content-Transfer-Encoding: quoted-printable

<p>=C2=A0</p>
<p>=C2=A0</p>
<p>=C2=A0</p>
<table =
style=3D"text-transform:none;text-indent:0px;letter-spacing:normal;font-f=
amily:&#39;Times New =
Roman&#39;;margin-left:auto;margin-right:auto;word-spacing:0px" =
border=3D"0" cellspacing=3D"0" cellpadding=3D"0">
<tbody>
<tr>
<td bgcolor=3D"#f2f4f1">
<table border=3D"0" cellspacing=3D"0" cellpadding=3D"0" =
align=3D"center">
<tbody>
<tr bgcolor=3D"#c4dccc">
<td align=3D"middle" valign=3D"center" width=3D"600">
<p><span style=3D"font-size:28px"><span style=3D"font-family:times new =
roman"><strong><span style=3D"color:#0000ff">Engineer Tee Shirts &amp; =
Linkedin Title Tee Shirts</span></strong></span></span></p>
<p><span style=3D"font-size:28px"><span style=3D"font-family:times new =
roman"><strong><span style=3D"color:#0000ff">From Sunfrog New =
2018</span></strong></span></span></p>
</td>
</tr>
<tr>
<td bgcolor=3D"#c4dccc" height=3D"5">=C2=A0</td>
</tr>
<tr>
<td valign=3D"top" bgcolor=3D"#c4dccc">
<table border=3D"0" cellspacing=3D"0" cellpadding=3D"0" =
align=3D"center">
<tbody>
<tr>
<td width=3D"8">=C2=A0</td>
<td width=3D"146" height=3D"140"><a =
href=3D"https://www.sunfrog.com/7011334-90817631.html?80201"><img =
src=3D"https://i.imgur.com/X7mxTBY.jpg" alt=3D"X7mxTBY.jpg" =
width=3D"180" height=3D"180" align=3D"bottom" border=3D"0" =
hspace=3D"0"></a></td>
<td width=3D"8">=C2=A0</td>
<td width=3D"146" height=3D"140"><a =
href=3D"https://www.sunfrog.com/2722210-41590891.html?80201"><img =
src=3D"https://i.imgur.com/ntCMHhc.jpg" alt=3D"" width=3D"180" =
height=3D"180" align=3D"bottom" border=3D"0" hspace=3D"0"></a></td>
<td width=3D"8">=C2=A0</td>
<td width=3D"146" height=3D"140"><a =
href=3D"https://www.sunfrog.com/3868972-53532480.html?80201"><img =
style=3D"margin-left: 0px; margin-right: 0px; border: 0px solid;" =
src=3D"https://i.imgur.com/2iHnEMb.jpg" alt=3D"" width=3D"180" =
height=3D"180" align=3D"bottom"></a></td>
<td width=3D"8">=C2=A0</td>
<td width=3D"146" height=3D"140"><a =
href=3D"https://www.sunfrog.com/2134588-33750211.html?80201"><img =
src=3D"https://i.imgur.com/AJTCeNN.jpg" alt=3D"" width=3D"180" =
height=3D"180" align=3D"bottom" border=3D"0" hspace=3D"0"></a></td>
<td width=3D"8">=C2=A0</td>
</tr>
</tbody>
</table>
</td>
</tr>
<tr>
<td bgcolor=3D"#c4dccc" height=3D"5">=C2=A0</td>
</tr>
<tr>
<td valign=3D"top" bgcolor=3D"#c4dccc">
<table border=3D"0" cellspacing=3D"0" cellpadding=3D"0" =
align=3D"center">
<tbody>
<tr>
<td width=3D"8">=C2=A0</td>
<td width=3D"146" height=3D"140"><a =
href=3D"https://www.sunfrog.com/484161-5873591.html?80201"><img =
src=3D"https://i.imgur.com/SWBsbAQ.jpg" alt=3D"" width=3D"180" =
height=3D"180" align=3D"bottom" border=3D"0" hspace=3D"0"></a></td>
<td width=3D"8">=C2=A0</td>
<td width=3D"146" height=3D"140"><a =
href=3D"https://www.sunfrog.com/2101135-33270933.html?80201"><img =
style=3D"margin-left: 0px; margin-right: 0px; border: 0px solid;" =
src=3D"https://i.imgur.com/z3LZ5c2.jpg" alt=3D"" width=3D"180" =
height=3D"180" align=3D"bottom"></a></td>
<td width=3D"8">=C2=A0</td>
<td width=3D"146" height=3D"140"><a =
href=3D"https://www.sunfrog.com/100279010-133449668.html?80201"><img =
style=3D"margin-left: 0px; margin-right: 0px; border: 0px solid;" =
src=3D"https://i.imgur.com/LZE3xIl.jpg" alt=3D"" width=3D"180" =
height=3D"180" align=3D"bottom"></a></td>
<td width=3D"8">=C2=A0</td>
<td width=3D"146" height=3D"140"><a =
href=3D"https://www.sunfrog.com/3868770-53530149.html?80201"><img =
src=3D"https://i.imgur.com/DACX0kt.jpg" alt=3D"" width=3D"180" =
height=3D"180" align=3D"bottom" border=3D"0" hspace=3D"0"></a></td>
<td width=3D"8">=C2=A0</td>
</tr>
</tbody>
</table>
</td>
</tr>
<tr>
<td bgcolor=3D"#c4dccc" height=3D"5">=C2=A0</td>
</tr>
<tr>
<td valign=3D"top" bgcolor=3D"#c4dccc">
<table border=3D"0" cellspacing=3D"0" cellpadding=3D"0" =
align=3D"center">
<tbody>
<tr>
<td width=3D"8">=C2=A0</td>
<td width=3D"146" height=3D"140"><a =
href=3D"https://www.sunfrog.com/106919617-224679402.html?80201"><img =
style=3D"margin-left: 0px; margin-right: 0px; border: 0px solid;" =
src=3D"https://i.imgur.com/fP9fapW.jpg" alt=3D"" width=3D"180" =
height=3D"180" align=3D"bottom"></a></td>
<td width=3D"8">=C2=A0</td>
<td width=3D"146" height=3D"140"><a =
href=3D"https://www.sunfrog.com/3234362-47887193.html?80201"><img =
style=3D"margin-left: 0px; margin-right: 0px; border: 0px solid;" =
src=3D"https://i.imgur.com/LU8f0fn.jpg" alt=3D"" width=3D"180" =
height=3D"180" align=3D"bottom"></a></td>
<td width=3D"8">=C2=A0</td>
<td width=3D"146" height=3D"140"><a =
href=3D"https://www.sunfrog.com/6051017-75131107.html?80201"><img =
src=3D"https://i.imgur.com/YKJ4Yb0.jpg" alt=3D"" width=3D"180" =
height=3D"180" align=3D"bottom" border=3D"0" hspace=3D"0"></a></td>
<td width=3D"8">=C2=A0</td>
<td width=3D"146" height=3D"140"><a =
href=3D"https://www.sunfrog.com/150553530-1270708957.html?80201"><img =
style=3D"margin-left: 0px; margin-right: 0px; border: 0px solid;" =
src=3D"https://i.imgur.com/bTme2pM.jpg" alt=3D"" width=3D"180" =
height=3D"180" align=3D"bottom"></a></td>
<td width=3D"8">=C2=A0</td>
</tr>
</tbody>
</table>
</td>
</tr>
<tr>
<td bgcolor=3D"#c4dccc" height=3D"5">=C2=A0</td>
</tr>
<tr>
<td valign=3D"top" bgcolor=3D"#c4dccc">
<table border=3D"0" cellspacing=3D"0" cellpadding=3D"0" =
align=3D"center">
<tbody>
<tr>
<td width=3D"8">=C2=A0</td>
<td width=3D"146" height=3D"140"><a =
href=3D"https://www.sunfrog.com/4895251-60930509.html?80201"><img =
style=3D"margin-left: 0px; margin-right: 0px; border: 0px solid;" =
src=3D"https://i.imgur.com/ftH038C.jpg" alt=3D"" width=3D"180" =
height=3D"180" align=3D"bottom"></a></td>
<td width=3D"8">=C2=A0</td>
<td width=3D"146" height=3D"140"><a =
href=3D"https://www.sunfrog.com/111610049-358255072.html?80201"><img =
style=3D"margin-left: 0px; margin-right: 0px; border: 0px solid;" =
src=3D"https://i.imgur.com/9E9FnxB.jpg" alt=3D"" width=3D"180" =
height=3D"180" align=3D"bottom"></a></td>
<td width=3D"8">=C2=A0</td>
<td width=3D"146" height=3D"140"><a =
href=3D"https://www.sunfrog.com/4613850-58073948.html?80201"><img =
style=3D"margin-left: 0px; margin-right: 0px; border: 0px solid;" =
src=3D"https://i.imgur.com/jbRae5S.jpg" alt=3D"" width=3D"180" =
height=3D"180" align=3D"bottom"></a></td>
<td width=3D"8">=C2=A0</td>
<td width=3D"146" height=3D"140"><a =
href=3D"https://www.sunfrog.com/1640242-27749105.html?80201"><img =
style=3D"margin-left: 0px; margin-right: 0px; border: 0px solid;" =
src=3D"https://i.imgur.com/4f4SOPm.jpg" alt=3D"" width=3D"180" =
height=3D"180" align=3D"bottom"></a></td>
<td width=3D"8">=C2=A0</td>
</tr>
</tbody>
</table>
</td>
</tr>
<tr>
<td bgcolor=3D"#c4dccc" height=3D"5">=C2=A0</td>
</tr>
<tr>
<td valign=3D"top" bgcolor=3D"#c4dccc">
<table border=3D"0" cellspacing=3D"0" cellpadding=3D"0" =
align=3D"center">
<tbody>
<tr>
<td width=3D"8">=C2=A0</td>
<td width=3D"146" height=3D"140"><a =
href=3D"https://www.sunfrog.com/4716308-59030042.html?80201"><img =
style=3D"margin-left: 0px; margin-right: 0px; border: 0px solid;" =
src=3D"https://i.imgur.com/96FXodF.jpg" alt=3D"" width=3D"180" =
height=3D"180" align=3D"bottom"></a></td>
<td width=3D"8">=C2=A0</td>
<td width=3D"146" height=3D"140"><a =
href=3D"https://www.sunfrog.com/103456819-173635028.html?80201"><img =
style=3D"margin-left: 0px; margin-right: 0px; border: 0px solid;" =
src=3D"https://i.imgur.com/AC3dC1l.jpg" alt=3D"" width=3D"180" =
height=3D"180" align=3D"bottom"></a></td>
<td width=3D"8">=C2=A0</td>
<td width=3D"146" height=3D"140"><a =
href=3D"https://www.sunfrog.com/1192330-18545192.html?80201"><img =
style=3D"margin-left: 0px; margin-right: 0px; border: 0px solid;" =
src=3D"https://i.imgur.com/q0N1qCz.jpg" alt=3D"" width=3D"180" =
height=3D"180" align=3D"bottom"></a></td>
<td width=3D"8">=C2=A0</td>
<td width=3D"146" height=3D"140"><a =
href=3D"https://www.sunfrog.com/97945849-109426392.html?80201"><img =
style=3D"margin-left: 0px; margin-right: 0px; border: 0px solid;" =
src=3D"https://i.imgur.com/IKQcwr6.jpg" alt=3D"" width=3D"180" =
height=3D"180" align=3D"bottom"></a></td>
<td width=3D"8">=C2=A0</td>
</tr>
</tbody>
</table>
</td>
</tr>
<tr align=3D"middle">
<td bgcolor=3D"#c4dccc" height=3D"40">
<table width=3D"699" cellspacing=3D"0" cellpadding=3D"0">
<tbody>
<tr>
<td bgcolor=3D"#c4dccc">
<div style=3D"text-align:center">
<div =
style=3D"text-align:center;text-transform:none;font-style:normal;text-ind=
ent:0px;letter-spacing:normal;font-family:&#39;Times New                 =
               =
Roman&#39;;white-space:normal;color:#000000;font-size:medium;font-weight:=
normal;word-spacing:0px"><span style=3D"font-size:18px"><strong><span =
style=3D"font-family:arial">Hello Sir, I&#39;m A Student And I&#39;m =
Honored To Be Selling T-Shirts For You . 100% Cotton T-shirt. Have all =
size. All colors - Guaranteed Delivery in 3-5 days for you (Guys + =
Ladies + Hoodie)</span></strong></span></div>
<div =
style=3D"text-align:center;text-transform:none;font-style:normal;text-ind=
ent:0px;letter-spacing:normal;font-family:&#39;Times New                 =
               =
Roman&#39;;white-space:normal;color:#000000;font-size:medium;font-weight:=
normal;word-spacing:0px">=C2=A0</div>
<div =
style=3D"text-transform:none;font-style:normal;text-indent:0px;letter-spa=
cing:normal;white-space:normal;color:#000000;font-weight:normal;word-spac=
ing:0px"><span style=3D"font-size:18px"><span =
style=3D"font-family:arial">I know you very love Engineer Jobs and want =
have T-Shirt for Engineer Jobs. </span></span></div>
<div =
style=3D"text-transform:none;font-style:normal;text-indent:0px;letter-spa=
cing:normal;white-space:normal;color:#000000;font-weight:normal;word-spac=
ing:0px"><span style=3D"font-size:18px"><span =
style=3D"font-family:arial">I would be honored to=C2=A0sell T-Shirts for =
you, Help me have many orders. Thank you a lot, Have a good =
day.</span></span></div>
<div =
style=3D"text-transform:none;font-style:normal;text-indent:0px;letter-spa=
cing:normal;white-space:normal;color:#000000;font-weight:normal;word-spac=
ing:0px">=C2=A0=C2=A0</div>
<div =
style=3D"text-align:left;text-transform:none;font-style:normal;text-inden=
t:0px;letter-spacing:normal;white-space:normal;color:#000000;font-weight:=
normal;word-spacing:0px"><span style=3D"font-size:18px"><span =
style=3D"font-family:arial"><ins>Engineer Jobs T-Shirts Catalogue new =
design 2018:</ins></span></span></div>
<div =
style=3D"text-align:left;text-transform:none;font-style:normal;text-inden=
t:0px;letter-spacing:normal;white-space:normal;color:#000000;font-weight:=
normal;word-spacing:0px"><span style=3D"font-size:14px"><strong><span =
style=3D"font-family:arial">IMPLEMENTATION ENGINEER =
</span></strong></span></div>
<div =
style=3D"text-align:left;text-transform:none;font-style:normal;text-inden=
t:0px;letter-spacing:normal;white-space:normal;color:#000000;font-weight:=
normal;word-spacing:0px"><span style=3D"font-size:14px"><strong><span =
style=3D"font-family:arial">VICE PRESIDENT OF ENGINEER =
</span></strong></span></div>
<div =
style=3D"text-align:left;text-transform:none;font-style:normal;text-inden=
t:0px;letter-spacing:normal;white-space:normal;color:#000000;font-weight:=
normal;word-spacing:0px"><span style=3D"font-size:14px"><strong><span =
style=3D"font-family:arial">SOFTWARE ENGINEER =
</span></strong></span></div>
<div =
style=3D"text-align:left;text-transform:none;font-style:normal;text-inden=
t:0px;letter-spacing:normal;white-space:normal;color:#000000;font-weight:=
normal;word-spacing:0px"><span style=3D"font-size:14px"><strong><span =
style=3D"font-family:arial">DATABASE ENGINEER =
</span></strong></span></div>
<div =
style=3D"text-align:left;text-transform:none;font-style:normal;text-inden=
t:0px;letter-spacing:normal;white-space:normal;color:#000000;font-weight:=
normal;word-spacing:0px"><span style=3D"font-size:14px"><strong><span =
style=3D"font-family:arial">SENIOR SOFTWARE ENGINEER =
</span></strong></span></div>
<div =
style=3D"text-align:left;text-transform:none;font-style:normal;text-inden=
t:0px;letter-spacing:normal;white-space:normal;color:#000000;font-weight:=
normal;word-spacing:0px"><span style=3D"font-size:14px"><strong><span =
style=3D"font-family:arial">PRINCIPAL ENGINEER =
</span></strong></span></div>
<div =
style=3D"text-align:left;text-transform:none;font-style:normal;text-inden=
t:0px;letter-spacing:normal;white-space:normal;color:#000000;font-weight:=
normal;word-spacing:0px"><span style=3D"font-size:14px"><strong><span =
style=3D"font-family:arial">PROJECT ENGINEER =
</span></strong></span></div>
<div =
style=3D"text-align:left;text-transform:none;font-style:normal;text-inden=
t:0px;letter-spacing:normal;white-space:normal;color:#000000;font-weight:=
normal;word-spacing:0px"><span style=3D"font-size:14px"><strong><span =
style=3D"font-family:arial">..............And more =
here</span></strong></span></div>
<div =
style=3D"text-align:left;text-transform:none;font-style:normal;text-inden=
t:0px;letter-spacing:normal;white-space:normal;color:#000000;font-weight:=
normal;word-spacing:0px"><br><span style=3D"font-size:17px"><span =
style=3D"font-family:arial"><strong>Link Category :=C2=A0<a =
href=3D"https://www.sunfrog.com/NguyenMyTrung/Shirts-For-Engineers">Engin=
eer Tee Shirts Full Quotes Store</a></strong></span></span> <br><span =
style=3D"font-size:17px"><span style=3D"font-family:arial"><strong>Link =
Search :=C2=A0<a href=3D"https://www.sunfrog.com/?id=3D80201">You Can =
Search All Tee Shirts Here, Trust Me !</a></strong></span></span></div>
<div =
style=3D"text-align:left;text-transform:none;font-style:normal;text-inden=
t:0px;letter-spacing:normal;white-space:normal;color:#000000;font-weight:=
normal;word-spacing:0px"><span style=3D"font-size:14px"><span =
style=3D"font-family:arial"><strong>If you&#39;re not like receive more =
mails:</strong><span style=3D"color:#0000ff">=C2=A0</span><a =
href=3D"http://makingmoneywithemailmarketing.com/Unsubscribe/CustomerUnsu=
bscribeID10101986.php" target=3D"_blank" rel=3D"noopener =
noreferrer"><span style=3D"color:#ff0000"><span =
style=3D"font-size:medium"><strong>Click Here To =
Unsubscribe</strong></span></span></a></span></span></div>
<div =
style=3D"text-align:center;text-transform:none;font-style:normal;text-ind=
ent:0px;letter-spacing:normal;font-family:&#39;Times New                 =
               =
Roman&#39;;white-space:normal;color:#000000;font-size:medium;font-weight:=
normal;word-spacing:0px"><span =
style=3D"font-family:arial">---------------------------------------------=
-------------------------------------------------------------------------=
------------</span></div>
<div =
style=3D"text-align:center;text-transform:none;font-style:normal;text-ind=
ent:0px;letter-spacing:normal;font-family:&#39;Times New                 =
               =
Roman&#39;;white-space:normal;color:#000000;font-size:medium;font-weight:=
normal;word-spacing:0px"><span style=3D"color:#000000"><strong><span =
style=3D"font-family:arial"><span =
style=3D"background-color:#ffffff">&gt;&gt;&gt;&gt;&gt;&gt;&gt;&gt;&gt;&g=
t;&gt;&gt;&gt;&gt;&gt;&gt;&gt;&gt;&gt;&gt;&gt;&gt;Thank You A Lot | Have =
A Good =
Day&lt;&lt;&lt;&lt;&lt;&lt;&lt;&lt;&lt;&lt;&lt;&lt;&lt;&lt;&lt;&lt;&lt;&l=
t;&lt;&lt;&lt;&lt;</span></span></strong></span></div>
<div =
style=3D"text-align:center;text-transform:none;font-style:normal;text-ind=
ent:0px;letter-spacing:normal;font-family:&#39;Times New                 =
               =
Roman&#39;;white-space:normal;color:#000000;font-size:medium;font-weight:=
normal;word-spacing:0px">=C2=A0</div>
<div =
style=3D"text-align:left;text-transform:none;font-style:normal;text-inden=
t:0px;letter-spacing:normal;white-space:normal;color:#000000;font-weight:=
normal;word-spacing:0px"><strong><span style=3D"font-family:arial">How =
to ? 1. Select color 2. Click the ADD TO CART button 3. Select your =
Preferred Size Quantity and Color 4. FINISH!</span></strong></div>
</div>
</td>
</tr>
</tbody>
</table>
</td>
</tr>
</tbody>
</table>
</td>
</tr>
</tbody>
</table>
<p =
style=3D"text-align:center;text-transform:none;font-style:normal;text-ind=
ent:0px;letter-spacing:normal;font-family:&#39;Times New      =
Roman&#39;;white-space:normal;color:#000000;font-size:medium;font-weight:=
normal;word-spacing:0px">=C2=A0</p>
<p>=C2=A0</p>

------=_NextPart_000_0FCE_01D48D7E.7CC57CA0--
